<?xml version="1.0" encoding="UTF-8" ?>
<svg xmlns="http://www.w3.org/2000/svg" version="1.1" xmlns:xlink="http://www.w3.org/1999/xlink" viewBox="0 0 100 100" width="100" height="100">
  <style>
rect, circle {
  fill: rgb(70,70,70);
}
  </style>
  <symbol id="layer" viewBox="0 0 100 34">
    <rect x="17" y="8" width="66" height="18"/>
    <circle cx="17" cy="17" r="9" />
    <circle cx="83" cy="17" r="9" />
  </symbol>

  <use id="logo-square-top" xlink:href="#layer" x="0" y="-33" />
  <use id="logo-square-top" xlink:href="#layer" x="0" y="0" />
  <use id="logo-square-top" xlink:href="#layer" x="0" y="33" />
</svg>
